PSTAT131-HW6
…
Exercise 7

What is the roc_auc of your best-performing random forest model on the folds? Hint: Use collect_metrics() and arrange().

collect_metrics(multi_tune_res) %>% arrange(-mean)

## # A tibble: 512 x 9
##     mtry trees min_n .metric .estimator  mean     n std_err .config             
##    <int> <int> <int> <chr>   <chr>      <dbl> <int>   <dbl> <chr>               
##  1     3   114     9 roc_auc hand_till  0.734     5 0.00859 Preprocessor1_Model~
##  2     3   200    17 roc_auc hand_till  0.731     5 0.00928 Preprocessor1_Model~
##  3     5   143    17 roc_auc hand_till  0.731     5 0.0126  Preprocessor1_Model~
##  4     6    57    13 roc_auc hand_till  0.731     5 0.00987 Preprocessor1_Model~
##  5     6   200     9 roc_auc hand_till  0.730     5 0.0108  Preprocessor1_Model~
##  6     6   114    17 roc_auc hand_till  0.730     5 0.0125  Preprocessor1_Model~
##  7     5   200    13 roc_auc hand_till  0.730     5 0.0154  Preprocessor1_Model~
##  8     4    57     9 roc_auc hand_till  0.730     5 0.0154  Preprocessor1_Model~
##  9     6   200    13 roc_auc hand_till  0.730     5 0.00875 Preprocessor1_Model~
## 10     3    86     5 roc_auc hand_till  0.729     5 0.00690 Preprocessor1_Model~
## # ... with 502 more rows
…
